EESchema Schematic File Version 4
EELAYER 30 0
EELAYER END
$Descr A4 11693 8268
encoding utf-8
Sheet 1 1
Title ""
Date ""
Rev ""
Comp ""
Comment1 ""
Comment2 ""
Comment3 ""
Comment4 ""
$EndDescr
Wire Wire Line
	1750 800  1750 900 
$Comp
L power:GND #PWR0102
U 1 1 61AE79DA
P 2200 1750
F 0 "#PWR0102" H 2200 1500 50  0001 C CNN
F 1 "GND" H 2205 1577 50  0000 C CNN
F 2 "" H 2200 1750 50  0001 C CNN
F 3 "" H 2200 1750 50  0001 C CNN
	1    2200 1750
	1    0    0    -1  
$EndComp
$Comp
L Device:C C1
U 1 1 61AE70FC
P 2200 1600
F 0 "C1" H 2315 1646 50  0000 L CNN
F 1 "22µF" H 2315 1555 50  0000 L CNN
F 2 "Capacitor_SMD:C_0805_2012Metric_Pad1.18x1.45mm_HandSolder" H 2238 1450 50  0001 C CNN
F 3 "~" H 2200 1600 50  0001 C CNN
	1    2200 1600
	1    0    0    -1  
$EndComp
Connection ~ 2200 1350
Wire Wire Line
	2200 1350 2200 1450
Wire Wire Line
	2200 1200 2200 1350
Wire Wire Line
	1950 1350 2200 1350
$Comp
L power:+BATT #PWR0103
U 1 1 61ADE134
P 1000 800
F 0 "#PWR0103" H 1000 650 50  0001 C CNN
F 1 "+BATT" H 1015 973 50  0000 C CNN
F 2 "" H 1000 800 50  0001 C CNN
F 3 "" H 1000 800 50  0001 C CNN
	1    1000 800 
	1    0    0    -1  
$EndComp
$Comp
L power:GND #PWR0104
U 1 1 61ADA7B8
P 900 1500
F 0 "#PWR0104" H 900 1250 50  0001 C CNN
F 1 "GND" H 905 1327 50  0000 C CNN
F 2 "" H 900 1500 50  0001 C CNN
F 3 "" H 900 1500 50  0001 C CNN
	1    900  1500
	1    0    0    -1  
$EndComp
Connection ~ 2200 900 
Connection ~ 1750 900 
Wire Wire Line
	1750 900  2200 900 
Wire Wire Line
	1750 900  1750 1050
$Comp
L Diode:1N5819 D1
U 1 1 61AC4077
P 2200 1050
F 0 "D1" V 2246 970 50  0000 R CNN
F 1 "1N5819" V 2155 970 50  0000 R CNN
F 2 "Diode_SMD:D_SOD-123" H 2200 875 50  0001 C CNN
F 3 "http://www.vishay.com/docs/88525/1n5817.pdf" H 2200 1050 50  0001 C CNN
	1    2200 1050
	0    -1   -1   0   
$EndComp
$Comp
L power:PWR_FLAG #FLG0101
U 1 1 61AC08F5
P 2200 800
F 0 "#FLG0101" H 2200 875 50  0001 C CNN
F 1 "PWR_FLAG" H 2200 973 50  0000 C CNN
F 2 "" H 2200 800 50  0001 C CNN
F 3 "~" H 2200 800 50  0001 C CNN
	1    2200 800 
	1    0    0    -1  
$EndComp
$Comp
L power:GND #PWR0105
U 1 1 61AF0E04
P 2750 1750
F 0 "#PWR0105" H 2750 1500 50  0001 C CNN
F 1 "GND" H 2755 1577 50  0000 C CNN
F 2 "" H 2750 1750 50  0001 C CNN
F 3 "" H 2750 1750 50  0001 C CNN
	1    2750 1750
	1    0    0    -1  
$EndComp
Wire Wire Line
	2750 1750 2750 1650
Wire Wire Line
	2450 1350 2200 1350
Wire Wire Line
	3050 1350 3250 1350
Wire Wire Line
	3250 1350 3250 800 
$Comp
L power:+3.3V #PWR0107
U 1 1 61AF33D7
P 3250 800
F 0 "#PWR0107" H 3250 650 50  0001 C CNN
F 1 "+3.3V" H 3265 973 50  0000 C CNN
F 2 "" H 3250 800 50  0001 C CNN
F 3 "" H 3250 800 50  0001 C CNN
	1    3250 800 
	1    0    0    -1  
$EndComp
Wire Wire Line
	2200 800  2200 900 
$Comp
L espressif:ESP32-S3-WROOM-1 U2
U 1 1 61B109E8
P 8150 2250
F 0 "U2" H 8125 3765 50  0000 C CNN
F 1 "ESP32-S3-WROOM-1" H 8125 3674 50  0000 C CNN
F 2 "Espressif:ESP32-S3-WROOM-1" H 8150 700 50  0001 C CNN
F 3 "" H 8150 2550 50  0001 C CNN
	1    8150 2250
	1    0    0    -1  
$EndComp
$Comp
L power:+3.3V #PWR0108
U 1 1 61B183D9
P 5400 3350
F 0 "#PWR0108" H 5400 3200 50  0001 C CNN
F 1 "+3.3V" H 5415 3523 50  0000 C CNN
F 2 "" H 5400 3350 50  0001 C CNN
F 3 "" H 5400 3350 50  0001 C CNN
	1    5400 3350
	1    0    0    -1  
$EndComp
Wire Wire Line
	5400 3350 5400 3450
Wire Wire Line
	10450 3350 10550 3350
Wire Wire Line
	10550 3350 10550 3450
Wire Wire Line
	10450 3550 10550 3550
Connection ~ 10550 3550
Wire Wire Line
	10550 3550 10550 3700
Wire Wire Line
	10450 3450 10550 3450
Connection ~ 10550 3450
Wire Wire Line
	10550 3450 10550 3550
$Comp
L power:GND #PWR0109
U 1 1 61B1A97E
P 10550 3700
F 0 "#PWR0109" H 10550 3450 50  0001 C CNN
F 1 "GND" H 10555 3527 50  0000 C CNN
F 2 "" H 10550 3700 50  0001 C CNN
F 3 "" H 10550 3700 50  0001 C CNN
	1    10550 3700
	1    0    0    -1  
$EndComp
$Comp
L Device:C C3
U 1 1 61B1BA5D
P 5000 1400
F 0 "C3" H 5115 1446 50  0000 L CNN
F 1 "1µF" H 5115 1355 50  0000 L CNN
F 2 "Capacitor_SMD:C_0805_2012Metric_Pad1.18x1.45mm_HandSolder" H 5038 1250 50  0001 C CNN
F 3 "~" H 5000 1400 50  0001 C CNN
	1    5000 1400
	1    0    0    -1  
$EndComp
Wire Wire Line
	5000 1550 5000 1600
$Comp
L power:GND #PWR0110
U 1 1 61B1E1D7
P 5000 1600
F 0 "#PWR0110" H 5000 1350 50  0001 C CNN
F 1 "GND" H 5005 1427 50  0000 C CNN
F 2 "" H 5000 1600 50  0001 C CNN
F 3 "" H 5000 1600 50  0001 C CNN
	1    5000 1600
	1    0    0    -1  
$EndComp
Wire Wire Line
	5000 1150 5000 1200
Wire Wire Line
	5000 1200 5000 1250
Connection ~ 5000 1200
$Comp
L Device:C C4
U 1 1 61B3B780
P 5400 3650
F 0 "C4" H 5515 3696 50  0000 L CNN
F 1 "22µF" H 5515 3605 50  0000 L CNN
F 2 "Capacitor_SMD:C_0805_2012Metric_Pad1.18x1.45mm_HandSolder" H 5438 3500 50  0001 C CNN
F 3 "~" H 5400 3650 50  0001 C CNN
	1    5400 3650
	1    0    0    -1  
$EndComp
$Comp
L Device:C C5
U 1 1 61B3BE02
P 5700 3650
F 0 "C5" H 5815 3696 50  0000 L CNN
F 1 "0.1µF" H 5815 3605 50  0000 L CNN
F 2 "Capacitor_SMD:C_0805_2012Metric_Pad1.18x1.45mm_HandSolder" H 5738 3500 50  0001 C CNN
F 3 "~" H 5700 3650 50  0001 C CNN
	1    5700 3650
	1    0    0    -1  
$EndComp
$Comp
L power:GND #PWR0112
U 1 1 61B3C449
P 5400 3850
F 0 "#PWR0112" H 5400 3600 50  0001 C CNN
F 1 "GND" H 5405 3677 50  0000 C CNN
F 2 "" H 5400 3850 50  0001 C CNN
F 3 "" H 5400 3850 50  0001 C CNN
	1    5400 3850
	1    0    0    -1  
$EndComp
$Comp
L power:GND #PWR0113
U 1 1 61B3CD4C
P 5700 3850
F 0 "#PWR0113" H 5700 3600 50  0001 C CNN
F 1 "GND" H 5705 3677 50  0000 C CNN
F 2 "" H 5700 3850 50  0001 C CNN
F 3 "" H 5700 3850 50  0001 C CNN
	1    5700 3850
	1    0    0    -1  
$EndComp
Wire Wire Line
	5700 3850 5700 3800
Wire Wire Line
	5400 3800 5400 3850
Wire Wire Line
	5400 3450 5700 3450
Wire Wire Line
	5700 3500 5700 3450
Connection ~ 5700 3450
Wire Wire Line
	5700 3450 5800 3450
Wire Wire Line
	5400 3450 5400 3500
Connection ~ 5400 3450
$Comp
L Connector_Generic:Conn_01x02 J1
U 1 1 61AD9D1E
P 650 1350
F 0 "J1" H 568 1567 50  0000 C CNN
F 1 "Conn_01x02" H 568 1476 50  0000 C CNN
F 2 "Connector_AMASS:AMASS_XT30U-F_1x02_P5.0mm_Vertical" H 650 1350 50  0001 C CNN
F 3 "~" H 650 1350 50  0001 C CNN
	1    650  1350
	-1   0    0    -1  
$EndComp
Text Label 10450 1000 0    50   ~ 0
GPIO20
Text Label 10450 1100 0    50   ~ 0
GPIO19
Text Label 10450 1700 0    50   ~ 0
GPIO21
Text Label 10450 1800 0    50   ~ 0
GPIO45_VDD_SPI
Text Label 10450 2000 0    50   ~ 0
GPIO48
Text Label 10450 2100 0    50   ~ 0
GPIO47
Text Label 10450 2300 0    50   ~ 0
GPIO35
Text Label 10450 2400 0    50   ~ 0
GPIO36
Text Label 10450 2500 0    50   ~ 0
GPIO37
Text Label 10450 2600 0    50   ~ 0
GPIO38
Text Label 10450 2800 0    50   ~ 0
GPIO39
Text Label 10450 2900 0    50   ~ 0
GPIO40
Text Label 10450 3000 0    50   ~ 0
GPIO41
Text Label 10450 3100 0    50   ~ 0
GPIO42
Text Label 5800 1100 2    50   ~ 0
GPIO0_UPD
Text Label 5800 1200 2    50   ~ 0
ESP_EN
Wire Wire Line
	5000 1200 5800 1200
Wire Wire Line
	5000 800  5000 850 
Text Label 5800 1350 2    50   ~ 0
GPIO1
Text Label 5800 1450 2    50   ~ 0
GPIO2
Text Label 5800 1550 2    50   ~ 0
GPIO3
Text Label 5800 1650 2    50   ~ 0
GPIO4
Text Label 5800 1750 2    50   ~ 0
GPIO5
Text Label 5800 1850 2    50   ~ 0
GPIO6
Text Label 5800 1950 2    50   ~ 0
GPIO7
Text Label 5800 2050 2    50   ~ 0
GPIO8
Text Label 5800 2150 2    50   ~ 0
GPIO9
Text Label 5800 2250 2    50   ~ 0
GPIO10
Text Label 5800 2350 2    50   ~ 0
GPIO11
Text Label 5800 2450 2    50   ~ 0
GPIO12
Text Label 5800 2550 2    50   ~ 0
GPIO13
Text Label 5800 2650 2    50   ~ 0
GPIO14
Text Label 5800 2750 2    50   ~ 0
GPIO15
Text Label 5800 3050 2    50   ~ 0
GPIO18
Text Label 5800 2950 2    50   ~ 0
GPIO17
Text Label 5800 2850 2    50   ~ 0
GPIO16
$Comp
L Device:R R1
U 1 1 61B394F4
P 5000 1000
F 0 "R1" V 4793 1000 50  0000 C CNN
F 1 "10k" V 4884 1000 50  0000 C CNN
F 2 "Resistor_SMD:R_0805_2012Metric_Pad1.20x1.40mm_HandSolder" V 4930 1000 50  0001 C CNN
F 3 "~" H 5000 1000 50  0001 C CNN
	1    5000 1000
	-1   0    0    1   
$EndComp
Text Label 10450 1900 0    50   ~ 0
GPIO46_ROM_PRINT
Text Label 10450 1500 0    50   ~ 0
GPIO44_U0RXD
Text Label 10450 1400 0    50   ~ 0
GPIO43_U0TXD
$Comp
L power:GND #PWR0106
U 1 1 62106945
P 600 4150
F 0 "#PWR0106" H 600 3900 50  0001 C CNN
F 1 "GND" H 605 3977 50  0000 C CNN
F 2 "" H 600 4150 50  0001 C CNN
F 3 "" H 600 4150 50  0001 C CNN
	1    600  4150
	1    0    0    -1  
$EndComp
Wire Wire Line
	1600 3950 600  3950
Wire Wire Line
	1300 4050 1600 4050
Wire Wire Line
	1300 3550 1600 3550
Text Label 8100 4350 2    50   ~ 0
GPIO46_ROM_PRINT
Text Label 1300 3650 2    50   ~ 0
GPIO44_U0RXD
Text Label 4550 3300 2    50   ~ 0
GPIO21
Text Label 3750 3400 0    50   ~ 0
GPIO10
Text Label 4550 3200 2    50   ~ 0
GPIO47
Text Label 4550 3100 2    50   ~ 0
GPIO48
Text Label 4550 3000 2    50   ~ 0
GPIO35
Text Label 4550 2900 2    50   ~ 0
GPIO36
Text Label 4550 2800 2    50   ~ 0
GPIO37
Text Label 4550 2700 2    50   ~ 0
GPIO38
Text Label 4550 2600 2    50   ~ 0
GPIO39
Text Label 4550 2500 2    50   ~ 0
GPIO40
Text Label 4550 2400 2    50   ~ 0
GPIO41
Text Label 4550 2300 2    50   ~ 0
GPIO42
Text Label 4550 2200 2    50   ~ 0
GPIO2
Text Label 4550 2100 2    50   ~ 0
GPIO1
Text Label 3750 3300 0    50   ~ 0
GPIO9
Text Label 3750 3200 0    50   ~ 0
GPIO3
Text Label 3750 3100 0    50   ~ 0
GPIO20
Text Label 3750 3000 0    50   ~ 0
GPIO19
Text Label 3750 2900 0    50   ~ 0
GPIO8
Text Label 3750 2800 0    50   ~ 0
GPIO18
Text Label 3750 2700 0    50   ~ 0
GPIO17
Text Label 3750 2600 0    50   ~ 0
GPIO16
Text Label 3750 2500 0    50   ~ 0
GPIO15
Text Label 3750 2400 0    50   ~ 0
GPIO7
Text Label 3750 2300 0    50   ~ 0
GPIO6
Text Label 3750 2200 0    50   ~ 0
GPIO5
Text Label 3750 2100 0    50   ~ 0
GPIO4
$Comp
L Jumper:SolderJumper_2_Open JP1
U 1 1 61BC7408
P 8550 4350
F 0 "JP1" H 8550 4555 50  0000 C CNN
F 1 "SolderJumper_2_Open" H 8550 4464 50  0000 C CNN
F 2 "Jumper:SolderJumper-2_P1.3mm_Open_Pad1.0x1.5mm" H 8550 4350 50  0001 C CNN
F 3 "~" H 8550 4350 50  0001 C CNN
	1    8550 4350
	1    0    0    -1  
$EndComp
Wire Wire Line
	8400 4350 8100 4350
Wire Wire Line
	8700 4350 9050 4350
Wire Wire Line
	9050 4350 9050 4250
$Comp
L power:+3.3V #PWR0117
U 1 1 61BCC461
P 9050 4250
F 0 "#PWR0117" H 9050 4100 50  0001 C CNN
F 1 "+3.3V" H 9065 4423 50  0000 C CNN
F 2 "" H 9050 4250 50  0001 C CNN
F 3 "" H 9050 4250 50  0001 C CNN
	1    9050 4250
	1    0    0    -1  
$EndComp
Text Label 8100 4700 2    50   ~ 0
GPIO45_VDD_SPI
Wire Wire Line
	8100 4700 8200 4700
Wire Wire Line
	8200 4700 8200 4800
$Comp
L power:GND #PWR0118
U 1 1 61BCE65B
P 8200 4800
F 0 "#PWR0118" H 8200 4550 50  0001 C CNN
F 1 "GND" H 8205 4627 50  0000 C CNN
F 2 "" H 8200 4800 50  0001 C CNN
F 3 "" H 8200 4800 50  0001 C CNN
	1    8200 4800
	1    0    0    -1  
$EndComp
$Comp
L power:+5V #PWR0101
U 1 1 61AC0494
P 1750 800
F 0 "#PWR0101" H 1750 650 50  0001 C CNN
F 1 "+5V" H 1765 973 50  0000 C CNN
F 2 "" H 1750 800 50  0001 C CNN
F 3 "" H 1750 800 50  0001 C CNN
	1    1750 800 
	1    0    0    -1  
$EndComp
Wire Wire Line
	850  1350 1000 1350
Wire Wire Line
	850  1450 900  1450
Wire Wire Line
	900  1450 900  1500
Wire Wire Line
	1000 800  1000 1350
Connection ~ 1000 1350
Wire Wire Line
	1000 1350 1550 1350
$Comp
L Regulator_Linear:MCP1700-3002E_SOT23 U1
U 1 1 61AA8620
P 2750 1350
F 0 "U1" H 2750 1592 50  0000 C CNN
F 1 "MCP1700-3002E_SOT23" H 2750 1501 50  0000 C CNN
F 2 "Package_TO_SOT_SMD:SOT-23" H 2750 1575 50  0001 C CNN
F 3 "http://ww1.microchip.com/downloads/en/DeviceDoc/20001826D.pdf" H 2750 1350 50  0001 C CNN
	1    2750 1350
	1    0    0    -1  
$EndComp
$Comp
L Transistor_FET:AO3401A Q1
U 1 1 61AB09C3
P 1750 1250
F 0 "Q1" V 1999 1250 50  0000 C CNN
F 1 "AO3415A" V 2090 1250 50  0000 C CNN
F 2 "Package_TO_SOT_SMD:SOT-23" H 1950 1175 50  0001 L CIN
F 3 "http://www.aosmd.com/pdfs/datasheet/AO3415A.pdf" H 1750 1250 50  0001 L CNN
	1    1750 1250
	0    -1   1    0   
$EndComp
$Comp
L Connector_Generic:Conn_01x01 J3
U 1 1 61B7F19B
P 3550 2100
F 0 "J3" H 3630 2142 50  0000 L CNN
F 1 "Conn_01x01" H 3630 2051 50  0000 L CNN
F 2 "prodboard:PinSlot_1x01_P2.54mm_Vertical" H 3550 2100 50  0001 C CNN
F 3 "~" H 3550 2100 50  0001 C CNN
	1    3550 2100
	-1   0    0    -1  
$EndComp
$Comp
L Connector_Generic:Conn_01x01 J7
U 1 1 61B7FEE9
P 3550 2200
F 0 "J7" H 3630 2242 50  0000 L CNN
F 1 "Conn_01x01" H 3630 2151 50  0000 L CNN
F 2 "prodboard:PinSlot_1x01_P2.54mm_Vertical" H 3550 2200 50  0001 C CNN
F 3 "~" H 3550 2200 50  0001 C CNN
	1    3550 2200
	-1   0    0    -1  
$EndComp
$Comp
L Connector_Generic:Conn_01x01 J8
U 1 1 61B829B1
P 3550 2300
F 0 "J8" H 3630 2342 50  0000 L CNN
F 1 "Conn_01x01" H 3630 2251 50  0000 L CNN
F 2 "prodboard:PinSlot_1x01_P2.54mm_Vertical" H 3550 2300 50  0001 C CNN
F 3 "~" H 3550 2300 50  0001 C CNN
	1    3550 2300
	-1   0    0    -1  
$EndComp
$Comp
L Connector_Generic:Conn_01x01 J9
U 1 1 61B82DFD
P 3550 2400
F 0 "J9" H 3630 2442 50  0000 L CNN
F 1 "Conn_01x01" H 3630 2351 50  0000 L CNN
F 2 "prodboard:PinSlot_1x01_P2.54mm_Vertical" H 3550 2400 50  0001 C CNN
F 3 "~" H 3550 2400 50  0001 C CNN
	1    3550 2400
	-1   0    0    -1  
$EndComp
$Comp
L Connector_Generic:Conn_01x01 J10
U 1 1 61B84412
P 3550 2500
F 0 "J10" H 3630 2542 50  0000 L CNN
F 1 "Conn_01x01" H 3630 2451 50  0000 L CNN
F 2 "prodboard:PinSlot_1x01_P2.54mm_Vertical" H 3550 2500 50  0001 C CNN
F 3 "~" H 3550 2500 50  0001 C CNN
	1    3550 2500
	-1   0    0    -1  
$EndComp
$Comp
L Connector_Generic:Conn_01x01 J11
U 1 1 61B8487E
P 3550 2600
F 0 "J11" H 3630 2642 50  0000 L CNN
F 1 "Conn_01x01" H 3630 2551 50  0000 L CNN
F 2 "prodboard:PinSlot_1x01_P2.54mm_Vertical" H 3550 2600 50  0001 C CNN
F 3 "~" H 3550 2600 50  0001 C CNN
	1    3550 2600
	-1   0    0    -1  
$EndComp
$Comp
L Connector_Generic:Conn_01x01 J12
U 1 1 61B84888
P 3550 2700
F 0 "J12" H 3630 2742 50  0000 L CNN
F 1 "Conn_01x01" H 3630 2651 50  0000 L CNN
F 2 "prodboard:PinSlot_1x01_P2.54mm_Vertical" H 3550 2700 50  0001 C CNN
F 3 "~" H 3550 2700 50  0001 C CNN
	1    3550 2700
	-1   0    0    -1  
$EndComp
$Comp
L Connector_Generic:Conn_01x01 J13
U 1 1 61B84892
P 3550 2800
F 0 "J13" H 3630 2842 50  0000 L CNN
F 1 "Conn_01x01" H 3630 2751 50  0000 L CNN
F 2 "prodboard:PinSlot_1x01_P2.54mm_Vertical" H 3550 2800 50  0001 C CNN
F 3 "~" H 3550 2800 50  0001 C CNN
	1    3550 2800
	-1   0    0    -1  
$EndComp
$Comp
L Connector_Generic:Conn_01x01 J14
U 1 1 61B86C15
P 3550 2900
F 0 "J14" H 3630 2942 50  0000 L CNN
F 1 "Conn_01x01" H 3630 2851 50  0000 L CNN
F 2 "prodboard:PinSlot_1x01_P2.54mm_Vertical" H 3550 2900 50  0001 C CNN
F 3 "~" H 3550 2900 50  0001 C CNN
	1    3550 2900
	-1   0    0    -1  
$EndComp
$Comp
L Connector_Generic:Conn_01x01 J15
U 1 1 61B870C1
P 3550 3000
F 0 "J15" H 3630 3042 50  0000 L CNN
F 1 "Conn_01x01" H 3630 2951 50  0000 L CNN
F 2 "prodboard:PinSlot_1x01_P2.54mm_Vertical" H 3550 3000 50  0001 C CNN
F 3 "~" H 3550 3000 50  0001 C CNN
	1    3550 3000
	-1   0    0    -1  
$EndComp
$Comp
L Connector_Generic:Conn_01x01 J16
U 1 1 61B870CB
P 3550 3100
F 0 "J16" H 3630 3142 50  0000 L CNN
F 1 "Conn_01x01" H 3630 3051 50  0000 L CNN
F 2 "prodboard:PinSlot_1x01_P2.54mm_Vertical" H 3550 3100 50  0001 C CNN
F 3 "~" H 3550 3100 50  0001 C CNN
	1    3550 3100
	-1   0    0    -1  
$EndComp
$Comp
L Connector_Generic:Conn_01x01 J17
U 1 1 61B870D5
P 3550 3200
F 0 "J17" H 3630 3242 50  0000 L CNN
F 1 "Conn_01x01" H 3630 3151 50  0000 L CNN
F 2 "prodboard:PinSlot_1x01_P2.54mm_Vertical" H 3550 3200 50  0001 C CNN
F 3 "~" H 3550 3200 50  0001 C CNN
	1    3550 3200
	-1   0    0    -1  
$EndComp
$Comp
L Connector_Generic:Conn_01x01 J18
U 1 1 61B870DF
P 3550 3300
F 0 "J18" H 3630 3342 50  0000 L CNN
F 1 "Conn_01x01" H 3630 3251 50  0000 L CNN
F 2 "prodboard:PinSlot_1x01_P2.54mm_Vertical" H 3550 3300 50  0001 C CNN
F 3 "~" H 3550 3300 50  0001 C CNN
	1    3550 3300
	-1   0    0    -1  
$EndComp
$Comp
L Connector_Generic:Conn_01x01 J19
U 1 1 61B870E9
P 3550 3400
F 0 "J19" H 3630 3442 50  0000 L CNN
F 1 "Conn_01x01" H 3630 3351 50  0000 L CNN
F 2 "prodboard:PinSlot_1x01_P2.54mm_Vertical" H 3550 3400 50  0001 C CNN
F 3 "~" H 3550 3400 50  0001 C CNN
	1    3550 3400
	-1   0    0    -1  
$EndComp
$Comp
L Connector_Generic:Conn_01x01 J20
U 1 1 61B8A0A8
P 4750 2100
F 0 "J20" H 4830 2142 50  0000 L CNN
F 1 "Conn_01x01" H 4830 2051 50  0000 L CNN
F 2 "prodboard:PinSlot_1x01_P2.54mm_Vertical" H 4750 2100 50  0001 C CNN
F 3 "~" H 4750 2100 50  0001 C CNN
	1    4750 2100
	1    0    0    -1  
$EndComp
$Comp
L Connector_Generic:Conn_01x01 J21
U 1 1 61B8A5D4
P 4750 2200
F 0 "J21" H 4830 2242 50  0000 L CNN
F 1 "Conn_01x01" H 4830 2151 50  0000 L CNN
F 2 "prodboard:PinSlot_1x01_P2.54mm_Vertical" H 4750 2200 50  0001 C CNN
F 3 "~" H 4750 2200 50  0001 C CNN
	1    4750 2200
	1    0    0    -1  
$EndComp
$Comp
L Connector_Generic:Conn_01x01 J22
U 1 1 61B8A5DE
P 4750 2300
F 0 "J22" H 4830 2342 50  0000 L CNN
F 1 "Conn_01x01" H 4830 2251 50  0000 L CNN
F 2 "prodboard:PinSlot_1x01_P2.54mm_Vertical" H 4750 2300 50  0001 C CNN
F 3 "~" H 4750 2300 50  0001 C CNN
	1    4750 2300
	1    0    0    -1  
$EndComp
$Comp
L Connector_Generic:Conn_01x01 J23
U 1 1 61B8A5E8
P 4750 2400
F 0 "J23" H 4830 2442 50  0000 L CNN
F 1 "Conn_01x01" H 4830 2351 50  0000 L CNN
F 2 "prodboard:PinSlot_1x01_P2.54mm_Vertical" H 4750 2400 50  0001 C CNN
F 3 "~" H 4750 2400 50  0001 C CNN
	1    4750 2400
	1    0    0    -1  
$EndComp
$Comp
L Connector_Generic:Conn_01x01 J24
U 1 1 61B8A5F2
P 4750 2500
F 0 "J24" H 4830 2542 50  0000 L CNN
F 1 "Conn_01x01" H 4830 2451 50  0000 L CNN
F 2 "prodboard:PinSlot_1x01_P2.54mm_Vertical" H 4750 2500 50  0001 C CNN
F 3 "~" H 4750 2500 50  0001 C CNN
	1    4750 2500
	1    0    0    -1  
$EndComp
$Comp
L Connector_Generic:Conn_01x01 J25
U 1 1 61B8A5FC
P 4750 2600
F 0 "J25" H 4830 2642 50  0000 L CNN
F 1 "Conn_01x01" H 4830 2551 50  0000 L CNN
F 2 "prodboard:PinSlot_1x01_P2.54mm_Vertical" H 4750 2600 50  0001 C CNN
F 3 "~" H 4750 2600 50  0001 C CNN
	1    4750 2600
	1    0    0    -1  
$EndComp
$Comp
L Connector_Generic:Conn_01x01 J26
U 1 1 61B8A606
P 4750 2700
F 0 "J26" H 4830 2742 50  0000 L CNN
F 1 "Conn_01x01" H 4830 2651 50  0000 L CNN
F 2 "prodboard:PinSlot_1x01_P2.54mm_Vertical" H 4750 2700 50  0001 C CNN
F 3 "~" H 4750 2700 50  0001 C CNN
	1    4750 2700
	1    0    0    -1  
$EndComp
$Comp
L Connector_Generic:Conn_01x01 J27
U 1 1 61B8A610
P 4750 2800
F 0 "J27" H 4830 2842 50  0000 L CNN
F 1 "Conn_01x01" H 4830 2751 50  0000 L CNN
F 2 "prodboard:PinSlot_1x01_P2.54mm_Vertical" H 4750 2800 50  0001 C CNN
F 3 "~" H 4750 2800 50  0001 C CNN
	1    4750 2800
	1    0    0    -1  
$EndComp
$Comp
L Connector_Generic:Conn_01x01 J28
U 1 1 61B8A61A
P 4750 2900
F 0 "J28" H 4830 2942 50  0000 L CNN
F 1 "Conn_01x01" H 4830 2851 50  0000 L CNN
F 2 "prodboard:PinSlot_1x01_P2.54mm_Vertical" H 4750 2900 50  0001 C CNN
F 3 "~" H 4750 2900 50  0001 C CNN
	1    4750 2900
	1    0    0    -1  
$EndComp
$Comp
L Connector_Generic:Conn_01x01 J29
U 1 1 61B8A624
P 4750 3000
F 0 "J29" H 4830 3042 50  0000 L CNN
F 1 "Conn_01x01" H 4830 2951 50  0000 L CNN
F 2 "prodboard:PinSlot_1x01_P2.54mm_Vertical" H 4750 3000 50  0001 C CNN
F 3 "~" H 4750 3000 50  0001 C CNN
	1    4750 3000
	1    0    0    -1  
$EndComp
$Comp
L Connector_Generic:Conn_01x01 J30
U 1 1 61B8A62E
P 4750 3100
F 0 "J30" H 4830 3142 50  0000 L CNN
F 1 "Conn_01x01" H 4830 3051 50  0000 L CNN
F 2 "prodboard:PinSlot_1x01_P2.54mm_Vertical" H 4750 3100 50  0001 C CNN
F 3 "~" H 4750 3100 50  0001 C CNN
	1    4750 3100
	1    0    0    -1  
$EndComp
$Comp
L Connector_Generic:Conn_01x01 J31
U 1 1 61B8A638
P 4750 3200
F 0 "J31" H 4830 3242 50  0000 L CNN
F 1 "Conn_01x01" H 4830 3151 50  0000 L CNN
F 2 "prodboard:PinSlot_1x01_P2.54mm_Vertical" H 4750 3200 50  0001 C CNN
F 3 "~" H 4750 3200 50  0001 C CNN
	1    4750 3200
	1    0    0    -1  
$EndComp
$Comp
L Connector_Generic:Conn_01x01 J32
U 1 1 61B8A642
P 4750 3300
F 0 "J32" H 4830 3342 50  0000 L CNN
F 1 "Conn_01x01" H 4830 3251 50  0000 L CNN
F 2 "prodboard:PinSlot_1x01_P2.54mm_Vertical" H 4750 3300 50  0001 C CNN
F 3 "~" H 4750 3300 50  0001 C CNN
	1    4750 3300
	1    0    0    -1  
$EndComp
$Comp
L Connector_Generic:Conn_01x01 J5
U 1 1 61BF66FB
P 1750 5300
F 0 "J5" H 1830 5342 50  0000 L CNN
F 1 "Conn_01x01" H 1830 5251 50  0000 L CNN
F 2 "prodboard:PinSlot_1x01_P2.54mm_Vertical" H 1750 5300 50  0001 C CNN
F 3 "~" H 1750 5300 50  0001 C CNN
	1    1750 5300
	-1   0    0    -1  
$EndComp
Wire Wire Line
	1950 5300 2000 5300
Wire Wire Line
	2000 5300 2000 5200
$Comp
L Connector_Generic:Conn_01x01 J6
U 1 1 61BF9052
P 2550 5300
F 0 "J6" H 2630 5342 50  0000 L CNN
F 1 "Conn_01x01" H 2630 5251 50  0000 L CNN
F 2 "prodboard:PinSlot_1x01_P2.54mm_Vertical" H 2550 5300 50  0001 C CNN
F 3 "~" H 2550 5300 50  0001 C CNN
	1    2550 5300
	-1   0    0    -1  
$EndComp
Wire Wire Line
	2750 5300 2850 5300
Wire Wire Line
	2850 5300 2850 5400
$Comp
L power:GND #PWR0115
U 1 1 61BFBED4
P 2850 5400
F 0 "#PWR0115" H 2850 5150 50  0001 C CNN
F 1 "GND" H 2855 5227 50  0000 C CNN
F 2 "" H 2850 5400 50  0001 C CNN
F 3 "" H 2850 5400 50  0001 C CNN
	1    2850 5400
	1    0    0    -1  
$EndComp
Text Label 5050 4650 2    50   ~ 0
GPIO11
Text Label 5050 5700 2    50   ~ 0
GPIO14
Text Label 5050 5350 2    50   ~ 0
GPIO13
Text Label 5050 5000 2    50   ~ 0
GPIO12
$Comp
L Connector_Generic:Conn_01x01 J33
U 1 1 61C02515
P 5250 4650
F 0 "J33" H 5168 4425 50  0000 C CNN
F 1 "Conn_01x01" H 5168 4516 50  0000 C CNN
F 2 "prodboard:PinSlot_1x01_P2.54mm_Vertical" H 5250 4650 50  0001 C CNN
F 3 "~" H 5250 4650 50  0001 C CNN
	1    5250 4650
	1    0    0    1   
$EndComp
$Comp
L Connector_Generic:Conn_01x01 J34
U 1 1 61C047B2
P 5250 5000
F 0 "J34" H 5168 4775 50  0000 C CNN
F 1 "Conn_01x01" H 5168 4866 50  0000 C CNN
F 2 "prodboard:PinSlot_1x01_P2.54mm_Vertical" H 5250 5000 50  0001 C CNN
F 3 "~" H 5250 5000 50  0001 C CNN
	1    5250 5000
	1    0    0    1   
$EndComp
$Comp
L Connector_Generic:Conn_01x01 J35
U 1 1 61C048F8
P 5250 5350
F 0 "J35" H 5168 5125 50  0000 C CNN
F 1 "Conn_01x01" H 5168 5216 50  0000 C CNN
F 2 "prodboard:PinSlot_1x01_P2.54mm_Vertical" H 5250 5350 50  0001 C CNN
F 3 "~" H 5250 5350 50  0001 C CNN
	1    5250 5350
	1    0    0    1   
$EndComp
$Comp
L Connector_Generic:Conn_01x01 J36
U 1 1 61C04A6E
P 5250 5700
F 0 "J36" H 5168 5475 50  0000 C CNN
F 1 "Conn_01x01" H 5168 5566 50  0000 C CNN
F 2 "prodboard:PinSlot_1x01_P2.54mm_Vertical" H 5250 5700 50  0001 C CNN
F 3 "~" H 5250 5700 50  0001 C CNN
	1    5250 5700
	1    0    0    1   
$EndComp
$Comp
L power:+3.3V #PWR0116
U 1 1 61BF8FFB
P 2000 5200
F 0 "#PWR0116" H 2000 5050 50  0001 C CNN
F 1 "+3.3V" H 2015 5373 50  0000 C CNN
F 2 "" H 2000 5200 50  0001 C CNN
F 3 "" H 2000 5200 50  0001 C CNN
	1    2000 5200
	1    0    0    -1  
$EndComp
Text Label 1300 3750 2    50   ~ 0
ESP_EN
Text Label 1300 4050 2    50   ~ 0
GPIO0_UPD
Wire Wire Line
	1600 3750 1300 3750
Wire Wire Line
	600  4150 600  3950
Text Label 1300 3550 2    50   ~ 0
GPIO43_U0TXD
Wire Wire Line
	1600 3650 1300 3650
$Comp
L power:+3.3V #PWR0114
U 1 1 61C5569C
P 5000 800
F 0 "#PWR0114" H 5000 650 50  0001 C CNN
F 1 "+3.3V" H 5015 973 50  0000 C CNN
F 2 "" H 5000 800 50  0001 C CNN
F 3 "" H 5000 800 50  0001 C CNN
	1    5000 800 
	1    0    0    -1  
$EndComp
Text Label 5000 850  2    50   ~ 0
PowerSmall
$Comp
L power:+5V #PWR0111
U 1 1 62108A4A
P 600 3850
F 0 "#PWR0111" H 600 3700 50  0001 C CNN
F 1 "+5V" H 615 4023 50  0000 C CNN
F 2 "" H 600 3850 50  0001 C CNN
F 3 "" H 600 3850 50  0001 C CNN
	1    600  3850
	1    0    0    -1  
$EndComp
Wire Wire Line
	1600 3850 600  3850
$Comp
L esp32-s3-prodboard:PCIe_x1 J2
U 1 1 61B4DDAA
P 1850 3750
F 0 "J2" H 1900 4767 50  0000 C CNN
F 1 "PCIe_x1" H 1900 4676 50  0000 C CNN
F 2 "prodboard:BUS_PCIexpress_x1_half" H 1850 3750 50  0001 C CNN
F 3 "~" H 1850 3750 50  0001 C CNN
	1    1850 3750
	1    0    0    -1  
$EndComp
$Comp
L power:GND #PWR?
U 1 1 61D99DD6
P 2750 4050
F 0 "#PWR?" H 2750 3800 50  0001 C CNN
F 1 "GND" H 2755 3877 50  0000 C CNN
F 2 "" H 2750 4050 50  0001 C CNN
F 3 "" H 2750 4050 50  0001 C CNN
	1    2750 4050
	1    0    0    -1  
$EndComp
Wire Wire Line
	2100 3950 2750 3950
Wire Wire Line
	2750 3950 2750 4050
$EndSCHEMATC
